Q7_REF/REFRACT.vcd
$date
	Tue Jun 23 21:56:01 2026
$end
$version
	Icarus Verilog
$end
$timescale
	10ps
$end
$scope module testfixture $end
$var wire 1 ! SRAM_WE $end
$var wire 16 " SRAM_Q [15:0] $end
$var wire 16 # SRAM_D [15:0] $end
$var wire 9 $ SRAM_A [8:0] $end
$var wire 1 % DONE $end
$var reg 1 & CLK $end
$var reg 4 ' INDEX [3:0] $end
$var reg 1 ( RST $end
$var reg 23 ) cycle_cnt [22:0] $end
$var reg 16 * get_x [15:0] $end
$var reg 16 + get_y [15:0] $end
$var reg 512 , golden_fname [511:0] $end
$var reg 16 - golden_x [15:0] $end
$var reg 16 . golden_y [15:0] $end
$var integer 32 / error_distance [31:0] $end
$var real 1 0 error_distance_real $end
$var integer 32 1 mem_index [31:0] $end
$var integer 32 2 mismatch_cnt [31:0] $end
$var integer 32 3 show_cnt [31:0] $end
$var real 1 4 tolerance_distance $end
$var integer 32 5 x [31:0] $end
$var integer 32 6 y [31:0] $end
$scope function distance $end
$var reg 16 7 x1 [15:0] $end
$var reg 16 8 x2 [15:0] $end
$var reg 16 9 y1 [15:0] $end
$var reg 16 : y2 [15:0] $end
$var real 1 ; dist_square $end
$var real 1 < nx1 $end
$var real 1 = nx2 $end
$var real 1 > ny1 $end
$var real 1 ? ny2 $end
$upscope $end
$scope module u_REFRACT $end
$var wire 1 & CLK $end
$var wire 4 @ RI [3:0] $end
$var wire 1 ( RST $end
$var wire 1 A y_div_out_valid $end
$var wire 16 B y_div_out [15:0] $end
$var wire 16 C x_div_out [15:0] $end
$var wire 52 D sqrt_temp [51:0] $end
$var wire 1 E sqrt_out_valid $end
$var wire 26 F sqrt_out [25:0] $end
$var wire 1 G div_out_valid $end
$var wire 16 H SRAM_Q [15:0] $end
$var parameter 32 I CALC $end
$var parameter 32 J CONST $end
$var parameter 32 K CONST_2 $end
$var parameter 32 L DIV $end
$var parameter 32 M FINISH $end
$var parameter 32 N IDLE $end
$var parameter 32 O OUTPUT $end
$var parameter 32 P SQRT $end
$var reg 72 Q BC_temp [71:0] $end
$var reg 26 R B_r [25:0] $end
$var reg 26 S B_w [25:0] $end
$var reg 46 T C_r [45:0] $end
$var reg 46 U C_w [45:0] $end
$var reg 1 % DONE $end
$var reg 46 V D_r [45:0] $end
$var reg 46 W D_w [45:0] $end
$var reg 4 X RI_r [3:0] $end
$var reg 4 Y RI_w [3:0] $end
$var reg 9 Z SRAM_A [8:0] $end
$var reg 16 [ SRAM_D [15:0] $end
$var reg 1 ! SRAM_WE $end
$var reg 43 \ X14_r [42:0] $end
$var reg 43 ] X14_w [42:0] $end
$var reg 22 ^ X7_r [21:0] $end
$var reg 22 _ X7_w [21:0] $end
$var reg 25 ` X8_r [24:0] $end
$var reg 25 a X8_w [24:0] $end
$var reg 43 b Y14_r [42:0] $end
$var reg 43 c Y14_w [42:0] $end
$var reg 22 d Y7_r [21:0] $end
$var reg 22 e Y7_w [21:0] $end
$var reg 25 f Y8_r [24:0] $end
$var reg 25 g Y8_w [24:0] $end
$var reg 46 h div_d_r [45:0] $end
$var reg 46 i div_d_w [45:0] $end
$var reg 1 j div_in_valid_r $end
$var reg 1 k div_in_valid_w $end
$var reg 1 l sX_r $end
$var reg 1 m sX_w $end
$var reg 1 n sY_r $end
$var reg 1 o sY_w $end
$var reg 1 p sqrt_valid_r $end
$var reg 1 q sqrt_valid_w $end
$var reg 3 r state_r [2:0] $end
$var reg 3 s state_w [2:0] $end
$var reg 4 t x_abs_r [3:0] $end
$var reg 4 u x_abs_w [3:0] $end
$var reg 94 v x_div_abc_r [93:0] $end
$var reg 94 w x_div_abc_w [93:0] $end
$var reg 4 x x_r [3:0] $end
$var reg 4 y x_w [3:0] $end
$var reg 4 z y_abs_r [3:0] $end
$var reg 4 { y_abs_w [3:0] $end
$var reg 16 | y_delay_r [15:0] $end
$var reg 16 } y_delay_w [15:0] $end
$var reg 94 ~ y_div_abc_r [93:0] $end
$var reg 94 !" y_div_abc_w [93:0] $end
$var reg 4 "" y_r [3:0] $end
$var reg 4 #" y_w [3:0] $end
$scope module sqrt_inst $end
$var wire 1 & clk $end
$var wire 1 ( rst $end
$var wire 54 $" shift_R [53:0] $end
$var wire 52 %" sqrt_in [51:0] $end
$var wire 1 p sqrt_in_valid $end
$var wire 27 &" trial [26:0] $end
$var wire 2 '" two_bits [1:0] $end
$var parameter 1 (" CALC $end
$var parameter 32 )" EARLY_STOP $end
$var parameter 1 *" IDLE $end
$var parameter 32 +" ITER $end
$var parameter 32 ," W_IN $end
$var reg 26 -" Q_r [25:0] $end
$var reg 26 ." Q_w [25:0] $end
$var reg 54 /" R_r [53:0] $end
$var reg 54 0" R_w [53:0] $end
$var reg 52 1" X_r [51:0] $end
$var reg 52 2" X_w [51:0] $end
$var reg 6 3" count_r [5:0] $end
$var reg 6 4" count_w [5:0] $end
$var reg 26 5" early_stop_temp [25:0] $end
$var reg 26 6" sqrt_out [25:0] $end
$var reg 1 E sqrt_out_valid $end
$var reg 1 7" state_r $end
$var reg 1 8" state_w $end
$upscope $end
$scope module x_div_inst $end
$var wire 50 9" R_shift [49:0] $end
$var wire 1 & clk $end
$var wire 94 :" div_abc [93:0] $end
$var wire 46 ;" div_d [45:0] $end
$var wire 1 j div_in_valid $end
$var wire 1 ( rst $end
$var wire 5 <" grp_idx [4:0] $end
$var wire 3 =" grp [2:0] $end
$var wire 50 >" D7 [49:0] $end
$var wire 50 ?" D6 [49:0] $end
$var wire 50 @" D5 [49:0] $end
$var wire 50 A" D4 [49:0] $end
$var wire 50 B" D3 [49:0] $end
$var wire 50 C" D2 [49:0] $end
$var wire 50 D" D1 [49:0] $end
$var parameter 1 E" CALC $end
$var parameter 32 F" DVD_W $end
$var parameter 1 G" IDLE $end
$var parameter 32 H" NITER $end
$var parameter 32 I" QW $end
$var parameter 32 J" RW $end
$var reg 46 K" D_r [45:0] $end
$var reg 46 L" D_w [45:0] $end
$var reg 63 M" Q_r [62:0] $end
$var reg 63 N" Q_w [62:0] $end
$var reg 50 O" R_next [49:0] $end
$var reg 50 P" R_r [49:0] $end
$var reg 50 Q" R_w [49:0] $end
$var reg 5 R" count_r [4:0] $end
$var reg 5 S" count_w [4:0] $end
$var reg 16 T" div_out [15:0] $end
$var reg 1 G div_out_valid $end
$var reg 63 U" dvd_r [62:0] $end
$var reg 63 V" dvd_w [62:0] $end
$var reg 3 W" q_digit [2:0] $end
$var reg 1 X" state_r $end
$var reg 1 Y" state_w $end
$upscope $end
$scope module y_div_inst $end
$var wire 50 Z" R_shift [49:0] $end
$var wire 1 & clk $end
$var wire 94 [" div_abc [93:0] $end
$var wire 46 \" div_d [45:0] $end
$var wire 1 j div_in_valid $end
$var wire 1 ( rst $end
$var wire 5 ]" grp_idx [4:0] $end
$var wire 3 ^" grp [2:0] $end
$var wire 50 _" D7 [49:0] $end
$var wire 50 `" D6 [49:0] $end
$var wire 50 a" D5 [49:0] $end
$var wire 50 b" D4 [49:0] $end
$var wire 50 c" D3 [49:0] $end
$var wire 50 d" D2 [49:0] $end
$var wire 50 e" D1 [49:0] $end
$var parameter 1 f" CALC $end
$var parameter 32 g" DVD_W $end
$var parameter 1 h" IDLE $end
$var parameter 32 i" NITER $end
$var parameter 32 j" QW $end
$var parameter 32 k" RW $end
$var reg 46 l" D_r [45:0] $end
$var reg 46 m" D_w [45:0] $end
$var reg 63 n" Q_r [62:0] $end
$var reg 63 o" Q_w [62:0] $end
$var reg 50 p" R_next [49:0] $end
$var reg 50 q" R_r [49:0] $end
$var reg 50 r" R_w [49:0] $end
$var reg 5 s" count_r [4:0] $end
$var reg 5 t" count_w [4:0] $end
$var reg 16 u" div_out [15:0] $end
$var reg 1 A div_out_valid $end
$var reg 63 v" dvd_r [62:0] $end
$var reg 63 w" dvd_w [62:0] $end
$var reg 3 x" q_digit [2:0] $end
$var reg 1 y" state_r $end
$var reg 1 z" state_w $end
$upscope $end
$upscope $end
$scope module u_SRAM $end
$var wire 9 {" A [8:0] $end
$var wire 1 & CLK $end
$var wire 16 |" D [15:0] $end
$var wire 1 ! WE $end
$var reg 16 }" Q [15:0] $end
$var integer 32 ~" i [31:0] $end
$upscope $end
$upscope $end
$enddefinitions $end
$comment Show the parameter values. $end
$dumpall
b110010 k"
b10000 j"
b10101 i"
0h"
b111111 g"
1f"
b110010 J"
b10000 I"
b10101 H"
0G"
b111111 F"
1E"
b110100 ,"
b11010 +"
0*"
b1101 )"
1("
b11 P
b110 O
b0 N
b111 M
b101 L
b100 K
b1 J
b10 I
$end
#0
$dumpvars
b1000000000 ~"
b0 }"
b0 |"
b0 {"
0z"
0y"
b111 x"
b0 w"
b0 v"
b0 u"
b0 t"
b0 s"
b0 r"
b0 q"
b0 p"
b0 o"
b0 n"
b0 m"
b0 l"
b0 e"
b0 d"
b0 c"
b0 b"
b0 a"
b0 `"
b0 _"
b0 ^"
b10100 ]"
b0 \"
b0 ["
b0 Z"
0Y"
0X"
b111 W"
b0 V"
b0 U"
b0 T"
b0 S"
b0 R"
b0 Q"
b0 P"
b0 O"
b0 N"
b0 M"
b0 L"
b0 K"
b0 D"
b0 C"
b0 B"
b0 A"
b0 @"
b0 ?"
b0 >"
b0 ="
b10100 <"
b0 ;"
b0 :"
b0 9"
08"
07"
b0 6"
b0 5"
b0 4"
b0 3"
b0 2"
b0 1"
b0 0"
b0 /"
b0 ."
b0 -"
b0 '"
b1 &"
b0 %"
b0 $"
b0 #"
b0 ""
b0 !"
b0 ~
b0 }
b0 |
b1000 {
b0 z
b0 y
b0 x
b0 w
b0 v
b1000 u
b0 t
b1 s
b0 r
0q
0p
1o
0n
1m
0l
0k
0j
b0 i
b0 h
b1000000000000 g
b0 f
b1000000 e
b0 d
b1000000000 c
b0 b
b1000000000000 a
b0 `
b1000000 _
b0 ^
b1000000000 ]
b0 \
b0 [
b0 Z
b1111 Y
b0 X
b0 W
b0 V
b0 U
b0 T
b0 S
b0 R
bx Q
b0 H
0G
b0 F
0E
b0 D
b0 C
b0 B
0A
b1111 @
r0 ?
r0 >
r0 =
r0 <
r0 ;
bx :
bx 9
bx 8
bx 7
bx 6
bx 5
r0.015625 4
b0 3
b0 2
bx 1
r0 0
bx /
bx .
bx -
b1100000011000001011111010101000100001000101111011001110110111101101100011001000110010101101110001011110110011101101111011011000110010001100101011011100101111100110001001101010010111001101101011001010110110101101000 ,
bx +
bx *
b0 )
1(
b1111 '
0&
0%
b0 $
b0 #
b0 "
0!
$end
#2500
b1 )
1&
#5000
0&
#7500
b10 )
1&
#10000
0&
#12500
b11 )
1&
#12600
0(
#15000
0&
#17500
b111000010000000000000000000000111000000000000000 D
b111000010000000000000000000000111000000000000000 %"
1q
b1000000000000000000000000000000000000000000 c
b1000000000000000000000000000000000000000000 ]
b1000000000000000000000000 g
b1000000000000000000000000 a
b1000000000000000000000 e
b1000000000000000000000 _
b11 s
b1000000000 b
b1000000000 \
b1000000000000 f
b1000000000000 `
b1000000 d
b1000000 ^
1n
1l
b1000 z
b1000 t
b1111 X
b1 r
b100 )
1&
#20000
0&
#22500
18"
b111111000010000000000000000000000000000000000000000 2"
b111111000010000000000000000000000000000000000000000 D
b111111000010000000000000000000000000000000000000000 %"
0q
1p
b1000000000000000000000000000000000000000000 b
b1000000000000000000000000000000000000000000 \
b1000000000000000000000000 f
b1000000000000000000000000 `
b1000000000000000000000 d
b1000000000000000000000 ^
b11 r
b101 )
1&
#25000
0&
#27500
b1 ."
b1 $"
b1 '"
b1 4"
b1111100001000000000000000000000000000000000000000000 2"
b111111000010000000000000000000000000000000000000000 1"
17"
0p
b110 )
1&
#30000
0&
#32500
b11 0"
b101 &"
b11 $"
b11 '"
b10 4"
b1110000100000000000000000000000000000000000000000000 2"
b10 ."
b1 F
b1 6"
b1 3"
b1111100001000000000000000000000000000000000000000000 1"
b1 -"
b111 )
1&
#35000
0&
#37500
b1001 &"
b110 0"
b1111 $"
b11 4"
b1000010000000000000000000000000000000000000000000000 2"
b101 ."
b10 F
b10 6"
b10 3"
b1110000100000000000000000000000000000000000000000000 1"
b10 -"
b11 /"
b1000 )
1&
#40000
0&
#42500
b10101 &"
b101 0"
b11010 $"
b10 '"
b100 4"
b1000000000000000000000000000000000000000000000000 2"
b1011 ."
b101 F
b101 6"
b11 3"
b1000010000000000000000000000000000000000000000000000 1"
b101 -"
b110 /"
b1001 )
1&
#45000
0&
#47500
b101101 &"
b10100 0"
b10100 $"
b0 '"
b101 4"
b100000000000000000000000000000000000000000000000000 2"
b10110 ."
b1011 F
b1011 6"
b100 3"
b1000000000000000000000000000000000000000000000000 1"
b1011 -"
b101 /"
b1010 )
1&
#50000
0&
#52500
b1011001 &"
b1010001 0"
b1010001 $"
b1 '"
b110 4"
b0 2"
b101100 ."
b10110 F
b10110 6"
b101 3"
b100000000000000000000000000000000000000000000000000 1"
b10110 -"
b10100 /"
b1011 )
1&
#55000
0&
#57500
b10110001 &"
b10010011 0"
b101000100 $"
b0 '"
b111 4"
b1011001 ."
b101100 F
b101100 6"
b110 3"
b0 1"
b101100 -"
b1010001 /"
b1100 )
1&
#60000
0&
#62500
b101100101 &"
b11100111 0"
b1001001100 $"
b1000 4"
b10110011 ."
b1011001 F
b1011001 6"
b111 3"
b1011001 -"
b10010011 /"
b1101 )
1&
#65000
0&
#67500
b1011001101 &"
b11001111 0"
b1110011100 $"
b1001 4"
b101100111 ."
b10110011 F
b10110011 6"
b1000 3"
b10110011 -"
b11100111 /"
b1110 )
1&
#70000
0&
#72500
b10110011101 &"
b1100111100 0"
b1100111100 $"
b1010 4"
b1011001110 ."
b101100111 F
b101100111 6"
b1001 3"
b101100111 -"
b11001111 /"
b1111 )
1&
#75000
0&
#77500
b101100111001 &"
b110110111 0"
b110011110000 $"
b1011 4"
b10110011101 ."
b1011001110 F
b1011001110 6"
b1010 3"
b1011001110 -"
b1100111100 /"
b10000 )
1&
#80000
0&
#82500
b1011001110101 &"
b11011011100 0"
b11011011100 $"
b1100 4"
b101100111010 ."
b10110011101 F
b10110011101 6"
b1011 3"
b10110011101 -"
b110110111 /"
b10001 )
1&
#85000
0&
#87500
b10110011101001 &"
b1101101110000 0"
b1101101110000 $"
b1101001110100000000000000000000000000000000000 W
b1010111110100000000000000000000000000000000000 U
b1000000000000000000000000 S
b100 s
1E
b1011001110100 5"
b0 4"
08"
b1011001110100 ."
b10110011101000000000000000 F
b10110011101000000000000000 6"
b1100 3"
b101100111010 -"
b11011011100 /"
b10010 )
1&
#90000
0&
#92500
b101100111010001 &"
b110110111000000 $"
1k
b1101001110100000000000000000000000000000000000 i
b1010111110100000000000000000000000000000000000000000000000000000000000000000000000000000000 !"
b1010111110100000000000000000000000000000000000000000000000000000000000000000000000000000000 w
b1010111110100000000000000000000000000000000000000000000000000000000000 Q
b101 s
b0 5"
0E
b1011001110100 F
b1011001110100 6"
b1101001110100000000000000000000000000000000000 V
b1010111110100000000000000000000000000000000000 T
b1000000000000000000000000 R
b100 r
b0 3"
b1011001110100 -"
b1101101110000 /"
07"
b10011 )
1&
#95000
0&
#97500
1z"
b1101001110100000000000000000000000000000000000 m"
b101011111010000000000000000000000000000000000000000000000000 w"
1Y"
b1101001110100000000000000000000000000000000000 L"
b101011111010000000000000000000000000000000000000000000000000 V"
0k
1j
b1101001110100000000000000000000000000000000000 h
b1101001110100000000000000000000000000000000000 ;"
b1101001110100000000000000000000000000000000000 \"
b1010111110100000000000000000000000000000000000000000000000000000000000000000000000000000000 ~
b1010111110100000000000000000000000000000000000000000000000000000000000000000000000000000000 ["
b1010111110100000000000000000000000000000000000000000000000000000000000000000000000000000000 v
b1010111110100000000000000000000000000000000000000000000000000000000000000000000000000000000 :"
b101 r
b10100 )
1&
#100000
0&
#102500
b110100111010000000000000000000000000000000000000 b"
b110100111010000000000000000000000000000000000000 A"
b11010011101000000000000000000000000000000000000 d"
b1001111010111000000000000000000000000000000000000 `"
b11010011101000000000000000000000000000000000000 C"
b1001111010111000000000000000000000000000000000000 ?"
b0 x"
b0 W"
b100111101011100000000000000000000000000000000000 c"
b1000010001000100000000000000000000000000000000000 a"
b1011100100101100000000000000000000000000000000000 _"
b1101001110100000000000000000000000000000000000 e"
b1 t"
b0 o"
b100111101011100000000000000000000000000000000000 B"
b1000010001000100000000000000000000000000000000000 @"
b1011100100101100000000000000000000000000000000000 >"
b1101001110100000000000000000000000000000000000 D"
b1 S"
b0 N"
0j
b1101001110100000000000000000000000000000000000 l"
b101011111010000000000000000000000000000000000000000000000000 v"
1y"
b1101001110100000000000000000000000000000000000 K"
b101011111010000000000000000000000000000000000000000000000000 U"
1X"
b10101 )
1&
#105000
0&
#107500
b101 Q"
b101 r"
b101 O"
b101 p"
b101 9"
b101 Z"
b101 ="
b101 ^"
b10011 <"
b10011 ]"
b10 S"
b10 t"
b1 R"
b1 s"
b10110 )
1&
#110000
0&
#112500
b101011 r"
b101011 Q"
b101011 p"
b101011 O"
b11 ^"
b101011 Z"
b11 ="
b101011 9"
b10010 ]"
b10010 <"
b11 t"
b11 S"
b10 s"
b101 q"
b10 R"
b101 P"
b10111 )
1&
#115000
0&
#117500
b101011111 Q"
b101011111 r"
b101011111 O"
b101011111 p"
b111 ="
b101011111 9"
b111 ^"
b101011111 Z"
b10001 <"
b10001 ]"
b100 S"
b100 t"
b11 R"
b101011 P"
b11 s"
b101011 q"
b11000 )
1&
#120000
0&
#122500
b101011111010 r"
b101011111010 Q"
b101011111010 p"
b101011111010 O"
b10 ^"
b101011111010 Z"
b10 ="
b101011111010 9"
b10000 ]"
b10000 <"
b101 t"
b101 S"
b100 s"
b101011111 q"
b100 R"
b101011111 P"
b11001 )
1&
#125000
0&
#127500
b101011111010000 Q"
b101011111010000 r"
b101011111010000 O"
b101011111010000 p"
b0 ="
b101011111010000 9"
b0 ^"
b101011111010000 Z"
b1111 <"
b1111 ]"
b110 S"
b110 t"
b101 R"
b101011111010 P"
b101 s"
b101011111010 q"
b11010 )
1&
#130000
0&
#132500
b101011111010000000 r"
b101011111010000000 Q"
b101011111010000000 p"
b101011111010000000 O"
b101011111010000000 Z"
b101011111010000000 9"
b1110 ]"
b1110 <"
b111 t"
b111 S"
b110 s"
b101011111010000 q"
b110 R"
b101011111010000 P"
b11011 )
1&
#135000
0&
#137500
b101011111010000000000 Q"
b101011111010000000000 r"
b101011111010000000000 O"
b101011111010000000000 p"
b101011111010000000000 9"
b101011111010000000000 Z"
b1101 <"
b1101 ]"
b1000 S"
b1000 t"
b111 R"
b101011111010000000 P"
b111 s"
b101011111010000000 q"
b11100 )
1&
#140000
0&
#142500
b101011111010000000000000 r"
b101011111010000000000000 Q"
b101011111010000000000000 p"
b101011111010000000000000 O"
b101011111010000000000000 Z"
b101011111010000000000000 9"
b1100 ]"
b1100 <"
b1001 t"
b1001 S"
b1000 s"
b101011111010000000000 q"
b1000 R"
b101011111010000000000 P"
b11101 )
1&
#145000
0&
#147500
b101011111010000000000000000 Q"
b101011111010000000000000000 r"
b101011111010000000000000000 O"
b101011111010000000000000000 p"
b101011111010000000000000000 9"
b101011111010000000000000000 Z"
b1011 <"
b1011 ]"
b1010 S"
b1010 t"
b1001 R"
b101011111010000000000000 P"
b1001 s"
b101011111010000000000000 q"
b11110 )
1&
#150000
0&
#152500
b101011111010000000000000000000 r"
b101011111010000000000000000000 Q"
b101011111010000000000000000000 p"
b101011111010000000000000000000 O"
b101011111010000000000000000000 Z"
b101011111010000000000000000000 9"
b1010 ]"
b1010 <"
b1011 t"
b1011 S"
b1010 s"
b101011111010000000000000000 q"
b1010 R"
b101011111010000000000000000 P"
b11111 )
1&
#155000
0&
#157500
b101011111010000000000000000000000 Q"
b101011111010000000000000000000000 r"
b101011111010000000000000000000000 O"
b101011111010000000000000000000000 p"
b101011111010000000000000000000000 9"
b101011111010000000000000000000000 Z"
b1001 <"
b1001 ]"
b1100 S"
b1100 t"
b1011 R"
b101011111010000000000000000000 P"
b1011 s"
b101011111010000000000000000000 q"
b100000 )
1&
#160000
0&
#162500
b101011111010000000000000000000000000 r"
b101011111010000000000000000000000000 Q"
b101011111010000000000000000000000000 p"
b101011111010000000000000000000000000 O"
b101011111010000000000000000000000000 Z"
b101011111010000000000000000000000000 9"
b1000 ]"
b1000 <"
b1101 t"
b1101 S"
b1100 s"
b101011111010000000000000000000000 q"
b1100 R"
b101011111010000000000000000000000 P"
b100001 )
1&
#165000
0&
#167500
b101011111010000000000000000000000000000 Q"
b101011111010000000000000000000000000000 r"
b101011111010000000000000000000000000000 O"
b101011111010000000000000000000000000000 p"
b101011111010000000000000000000000000000 9"
b101011111010000000000000000000000000000 Z"
b111 <"
b111 ]"
b1110 S"
b1110 t"
b1101 R"
b101011111010000000000000000000000000 P"
b1101 s"
b101011111010000000000000000000000000 q"
b100010 )
1&
#170000
0&
#172500
b101011111010000000000000000000000000000000 r"
b101011111010000000000000000000000000000000 Q"
b101011111010000000000000000000000000000000 p"
b101011111010000000000000000000000000000000 O"
b101011111010000000000000000000000000000000 Z"
b101011111010000000000000000000000000000000 9"
b110 ]"
b110 <"
b1111 t"
b1111 S"
b1110 s"
b101011111010000000000000000000000000000 q"
b1110 R"
b101011111010000000000000000000000000000 P"
b100011 )
1&
#175000
0&
#177500
b101011111010000000000000000000000000000000000 Q"
b101011111010000000000000000000000000000000000 r"
b101011111010000000000000000000000000000000000 O"
b101011111010000000000000000000000000000000000 p"
b101011111010000000000000000000000000000000000 9"
b101011111010000000000000000000000000000000000 Z"
b101 <"
b101 ]"
b10000 S"
b10000 t"
b1111 R"
b101011111010000000000000000000000000000000 P"
b1111 s"
b101011111010000000000000000000000000000000 q"
b100100 )
1&
#180000
0&
#182500
b11 o"
b100001110100000000000000000000000000000000000 r"
b11 N"
b100001110100000000000000000000000000000000000 Q"
b100001110100000000000000000000000000000000000 p"
b11 x"
b100001110100000000000000000000000000000000000 O"
b11 W"
b101011111010000000000000000000000000000000000000 Z"
b101011111010000000000000000000000000000000000000 9"
b100 ]"
b100 <"
b10001 t"
b10001 S"
b10000 s"
b101011111010000000000000000000000000000000000 q"
b10000 R"
b101011111010000000000000000000000000000000000 P"
b100101 )
1&
#185000
0&
#187500
b111010111000000000000000000000000000000000000 Q"
b111010111000000000000000000000000000000000000 r"
b111010111000000000000000000000000000000000000 O"
b10 W"
b111010111000000000000000000000000000000000000 p"
b10 x"
b100001110100000000000000000000000000000000000000 9"
b100001110100000000000000000000000000000000000000 Z"
b11 <"
b11 ]"
b10010 S"
b11010 N"
b11 C
b11 T"
b10010 t"
b11010 o"
b11 B
b11 u"
b10001 R"
b11 M"
b100001110100000000000000000000000000000000000 P"
b10001 s"
b11 n"
b100001110100000000000000000000000000000000000 q"
b100110 )
1&
#190000
0&
#192500
b101111110000000000000000000000000000000000000 r"
b101111110000000000000000000000000000000000000 Q"
b101111110000000000000000000000000000000000000 p"
b100 x"
b101111110000000000000000000000000000000000000 O"
b100 W"
b111010111000000000000000000000000000000000000000 Z"
b111010111000000000000000000000000000000000000000 9"
b10 ]"
b10 <"
b10011 t"
b11010100 o"
b11010 B
b11010 u"
b10011 S"
b11010100 N"
b11010 C
b11010 T"
b10010 s"
b11010 n"
b111010111000000000000000000000000000000000000 q"
b10010 R"
b11010 M"
b111010111000000000000000000000000000000000000 P"
b100111 )
1&
#195000
0&
#197500
b1000000100100000000000000000000000000000000000 Q"
b1000000100100000000000000000000000000000000000 r"
b1000000100100000000000000000000000000000000000 O"
b11 W"
b1000000100100000000000000000000000000000000000 p"
b11 x"
b101111110000000000000000000000000000000000000000 9"
b101111110000000000000000000000000000000000000000 Z"
b1 <"
b1 ]"
b10100 S"
b11010100011 N"
b11010100 C
b11010100 T"
b10100 t"
b11010100011 o"
b11010100 B
b11010100 u"
b10011 R"
b11010100 M"
b101111110000000000000000000000000000000000000 P"
b10011 s"
b11010100 n"
b101111110000000000000000000000000000000000000 q"
b101000 )
1&
#200000
0&
#202500
b1011101010000000000000000000000000000000000000 r"
b1011101010000000000000000000000000000000000000 Q"
b1011101010000000000000000000000000000000000000 p"
b100 x"
b1011101010000000000000000000000000000000000000 O"
b100 W"
b1000000100100000000000000000000000000000000000000 Z"
b1000000100100000000000000000000000000000000000000 9"
b0 ]"
b0 <"
b11010100011100 }
1!
b11010100011100 #
b11010100011100 [
b11010100011100 |"
b110 s
1A
b0 t"
0z"
b11010100011100 o"
b11010100011100 B
b11010100011100 u"
1G
b0 S"
0Y"
b11010100011100 N"
b11010100011100 C
b11010100011100 T"
b10100 s"
b11010100011 n"
b1000000100100000000000000000000000000000000000 q"
b10100 R"
b11010100011 M"
b1000000100100000000000000000000000000000000000 P"
b101001 )
1&
#205000
0&
#207500
b101010100000000000000000000000000000000000 O"
b111 W"
b101010100000000000000000000000000000000000 p"
b111 x"
b1011101010000000000000000000000000000000000000000 9"
b1011101010000000000000000000000000000000000000000 Z"
b10100 <"
b10100 ]"
0G
0A
b1 y
b1 $
b1 Z
b1 {"
b0 s
1!
b11010100011100 #
b11010100011100 [
b11010100011100 |"
b0 R"
b11010100011100 M"
b1011101010000000000000000000000000000000000000 P"
0X"
b0 s"
b11010100011100 n"
b1011101010000000000000000000000000000000000000 q"
0y"
b11010100011100 |
b110 r
b101010 )
1&
#210000
0&
#212500
b1000000000 c
b101010111 ]
b1000000000000 g
b100101100001 a
b1000000 e
b110001 _
b111 u
b1 s
0!
b0 #
b0 [
b0 |"
b0 $
b0 Z
b0 {"
b1 x
b0 r
b101011 )
1&
#215000
0&
#217500
b111000010000000000000000000000101110110000100000 D
b111000010000000000000000000000101110110000100000 %"
1q
b1000000000000000000000000000000000000000000 c
b1001110111101001001111101100111001010001 ]
b1000000000000000000000000 g
b10101111111011011000001 a
b1000000000000000000000 e
b11001001000011110111 _
b11 s
b1000000000 b
b101010111 \
b1000000000000 f
b100101100001 `
b1000000 d
b110001 ^
b111 t
b1 r
b11010100011100 "
b11010100011100 H
b11010100011100 }"
b101100 )
1&
#220000
0&
#222500
18"
b0 ."
b0 0"
b100111010110010110000010110111101001000011011100000 2"
b100111010110010110000010110111101001000011011100000 D
b100111010110010110000010110111101001000011011100000 %"
0q
1p
b1000000000000000000000000000000000000000000 b
b1001110111101001001111101100111001010001 \
b1000000000000000000000000 f
b10101111111011011000001 `
b1000000000000000000000 d
b11001001000011110111 ^
b11 r
b101101 )
1&
#225000
0&
#227500
b1 &"
b1 $"
b1 '"
b1 4"
b11101011001011000001011011110100100001101110000000 2"
b1 ."
b0 0"
b0 F
b0 6"
b100111010110010110000010110111101001000011011100000 1"
b0 -"
b0 /"
17"
0p
b101110 )
1&
#230000
0&
#232500
b101 &"
b0 $"
b0 '"
b10 4"
b1110101100101100000101101111010010000110111000000000 2"
b10 ."
b1 F
b1 6"
b1 3"
b11101011001011000001011011110100100001101110000000 1"
b1 -"
b101111 )
1&
#235000
0&
#237500
b11 0"
b1001 &"
b11 $"
b11 '"
b11 4"
b1010110010110000010110111101001000011011100000000000 2"
b100 ."
b10 F
b10 6"
b10 3"
b1110101100101100000101101111010010000110111000000000 1"
b10 -"
b110000 )
1&
#240000
0&
#242500
b10001 &"
b1110 0"
b1110 $"
b10 '"
b100 4"
b1011001011000001011011110100100001101110000000000000 2"
b1000 ."
b100 F
b100 6"
b11 3"
b1010110010110000010110111101001000011011100000000000 1"
b100 -"
b11 /"
b110001 )
1&
#245000
0&
#247500
b100001 &"
b11001 0"
b111010 $"
b101 4"
b1100101100000101101111010010000110111000000000000000 2"
b10001 ."
b1000 F
b1000 6"
b100 3"
b1011001011000001011011110100100001101110000000000000 1"
b1000 -"
b1110 /"
b110010 )
1&
#250000
0&
#252500
b1000101 &"
b100010 0"
b1100111 $"
b11 '"
b110 4"
b10110000010110111101001000011011100000000000000000 2"
b100011 ."
b10001 F
b10001 6"
b101 3"
b1100101100000101101111010010000110111000000000000000 1"
b10001 -"
b11001 /"
b110011 )
1&
#255000
0&
#257500
b10001101 &"
b10001000 0"
b10001000 $"
b0 '"
b111 4"
b1011000001011011110100100001101110000000000000000000 2"
b1000110 ."
b100011 F
b100011 6"
b110 3"
b10110000010110111101001000011011100000000000000000 1"
b100011 -"
b100010 /"
b110100 )
1&
#260000
0&
#262500
b100011001 &"
b100001001 0"
b1000100010 $"
b10 '"
b1000 4"
b1100000101101111010010000110111000000000000000000000 2"
b10001101 ."
b1000110 F
b1000110 6"
b111 3"
b1011000001011011110100100001101110000000000000000000 1"
b1000110 -"
b10001000 /"
b110101 )
1&
#265000
0&
#267500
b1000110101 &"
b111110010 0"
b10000100111 $"
b11 '"
b1001 4"
b10110111101001000011011100000000000000000000000 2"
b100011011 ."
b10001101 F
b10001101 6"
b1000 3"
b1100000101101111010010000110111000000000000000000000 1"
b10001101 -"
b100001001 /"
b110110 )
1&
#270000
0&
#272500
b10001101101 &"
b1101011011 0"
b11111001000 $"
b0 '"
b1010 4"
b1011011110100100001101110000000000000000000000000 2"
b1000110111 ."
b100011011 F
b100011011 6"
b1001 3"
b10110111101001000011011100000000000000000000000 1"
b100011011 -"
b111110010 /"
b110111 )
1&
#275000
0&
#277500
b100011011101 &"
b10010001111 0"
b110101101100 $"
b1011 4"
b101101111010010000110111000000000000000000000000000 2"
b10001101111 ."
b1000110111 F
b1000110111 6"
b1010 3"
b1011011110100100001101110000000000000000000000000 1"
b1000110111 -"
b1101011011 /"
b111000 )
1&
#280000
0&
#282500
b1000110111101 &"
b10000000 0"
b1001000111101 $"
b1 '"
b1100 4"
b110111101001000011011100000000000000000000000000000 2"
b100011011111 ."
b10001101111 F
b10001101111 6"
b1011 3"
b101101111010010000110111000000000000000000000000000 1"
b10001101111 -"
b10010001111 /"
b111001 )
1&
#285000
0&
